﻿# Tiled2Unity generated file. Do not modify by hand.
# Wavefront file for 'mapSolMur_mesh_tile_5138.obj'

# Vertices (Count = 4)
v 0 -32 0
v -32 -32 0
v -32 0 0
v 0 0 0

# Texture cooridinates (Count = 4)
vt 0 0
vt 1 0
vt 1 1
vt 0 1

# Normal
vn 0 0 -1

# Mesh description
g mapSolMur_mesh_tile_5138

# Faces
f 1/1/1 2/2/1 3/3/1 4/4/1

