﻿# Tiled2Unity generated file. Do not modify by hand.
# Wavefront file for 'level301_mesh_0003.obj'

# Vertices (Count = 16)
v -384 -288 0
v -416 -288 0
v -416 -256 0
v -384 -256 0
v -448 -288 0
v -480 -288 0
v -480 -256 0
v -448 -256 0
v -384 -384 0
v -416 -384 0
v -416 -352 0
v -384 -352 0
v -448 -384 0
v -480 -384 0
v -480 -352 0
v -448 -352 0

# Texture cooridinates (Count = 4)
vt 0 0
vt 1 0
vt 1 1
vt 0 1

# Normal
vn 0 0 -1

# Mesh description
g level301_mesh_0003

# Faces
f 1/1/1 2/2/1 3/3/1 4/4/1
f 5/1/1 6/2/1 7/3/1 8/4/1
f 9/1/1 10/2/1 11/3/1 12/4/1
f 13/1/1 14/2/1 15/3/1 16/4/1

